LocationID, Country,County,Latitude,Longitude,Place,State,StateAbbreviation,ZipCode,
1,USA,,40.3494179,-94.9238399,Maryville,Missouri,,,
2,USA,,37.6991993,-97.4843859,Wichita,Kansas,,,
3,USA,,40.3494179,-94.9238399,Maryville,Missouri,,,
4,USA,,45.0993041,-93.1007215,Whte Bear Lake,Minnesota,,,
5,India,,17.4126272,78.2676166,Hyderabad,,,,
6,India,,25.9019385,84.6797775,Bihar,,,,
